…
print(as.tibble(vv_ano_n_c))

## # A tibble: 28 x 26
##       ANO               CLASSE       VT        VT.vp        VA       VA.vp
##    <fctr>               <fctr>    <dbl>        <dbl>     <dbl>       <dbl>
##  1   2014            Consultas  8065963           NA  77.83167          NA
##  2   2015            Consultas  9444977  0.170967084  85.86750 0.103246322
##  3   2016            Consultas 10099792  0.069329459  87.57250 0.019856174
##  4   2017            Consultas 10380858  0.027828847  88.26857 0.007948516
##  5   2014           Emergência  5934704           NA 162.88500          NA
##  6   2015           Emergência  7263741  0.223943251 192.13333 0.179564314
##  7   2016           Emergência  7216154 -0.006551207 197.68167 0.028877516
##  8   2017           Emergência  7406013  0.026310202 206.45429 0.044377504
##  9   2014 Exames e Tratamentos 25171278           NA 209.58417          NA
## 10   2015 Exames e Tratamentos 32111785  0.275731239 253.46750 0.209382865
## # ... with 18 more rows, and 20 more variables: VC <dbl>, VC.vp <dbl>,
## #   VI <dbl>, VI.vp <dbl>, QP <dbl>, QP.vp <dbl>, QA <dbl>, QA.vp <dbl>,
## #   QC <dbl>, QC.vp <dbl>, QI <dbl>, QI.vp <dbl>, VQ <dbl>, VQ.vp <dbl>,
## #   BA <dbl>, BA.vp <dbl>, CT <dbl>, CT.vp <dbl>, IT <dbl>, IT.vp <dbl>
…
vv_am_scale_n <- select(vv_am_scale_n, names.v)

## Exportação de planilha
# ------------------------------------------------------------------------------------------

write.csv2(vv_am_scale_n, 'resumo_anomes.csv')

print(as.tibble(vv_am_scale_n))

## # A tibble: 43 x 34
##       ANO ANOMES        VT     VT.sd     VM     VM.sd     VA     VA.sd
##    <fctr> <fctr>     <dbl>     <dbl>  <dbl>     <dbl>  <dbl>     <dbl>
##  1   2014 201401  95604152 0.8101340 199.42 0.8374815 561.48 0.8848025
##  2   2014 201402  88308696 0.7483135 183.60 0.7710441 521.31 0.8215010
##  3   2014 201403  88056643 0.7461776 182.12 0.7648287 528.68 0.8331149
##  4   2014 201404  92536470 0.7841389 192.03 0.8064466 536.78 0.8458792
##  5   2014 201405 100484631 0.8514904 207.02 0.8693984 570.26 0.8986383
##  6   2014 201406  87131117 0.7383349 179.12 0.7522299 537.71 0.8473448
##  7   2014 201407 105749526 0.8961042 216.98 0.9112263 574.44 0.9052254
##  8   2014 201408 108440346 0.9189058 221.92 0.9319722 590.35 0.9302970
##  9   2014 201409 107825473 0.9136955 220.09 0.9242870 580.22 0.9143337
## 10   2014 201410 116075935 0.9836085 237.08 0.9956380 609.26 0.9600961
## # ... with 33 more rows, and 26 more variables: VC <dbl>, VC.sd <dbl>,
## #   VI <dbl>, VI.sd <dbl>, QP <dbl>, QP.sd <dbl>, QM <dbl>, QM.sd <dbl>,
## #   QA <dbl>, QA.sd <dbl>, QC <dbl>, QC.sd <dbl>, QI <dbl>, QI.sd <dbl>,
## #   VQ <dbl>, VQ.sd <dbl>, BT <dbl>, BT.sd <dbl>, BA <dbl>, BA.sd <dbl>,
## #   CT <dbl>, CT.sd <dbl>, IT <dbl>, IT.sd <dbl>, PA <dbl>, PA.sd <dbl>
…
