…
Duas consolidaes de quantidade por ms de referncia, uma entre dias 1 a 15 e outra entre 16 a 31, para aumento da eficcia dos testes relacionados;

Na transformao, foram filtrados dados de maior relevncia, a partir de janeiro de 2014, gerando 78 observaes por componente;

Dados de Componente, Ano/ms/Quinzena e Indicador de Internao (CAI);

#### Formato original, trabalhado no MS Excel ---------------
cat("Formato original, trabalhado no MS Excel")

## Formato original, trabalhado no MS Excel

org <- read_excel('CAIv2.xlsx');org;

## # A tibble: 22,096 x 5
##    componente internacao      amq valor quantidade
##         <chr>      <chr>    <chr> <dbl>      <dbl>
##  1   material          n 20121002  1.68          1
##  2   material          n 20130101  1.68          1
##  3       sadt          s 20130702  2.80          1
##  4       sadt          s 20130102  3.30          1
##  5       sadt          n 20130402  5.00          1
##  6       sadt          n 20130402  5.00          1
##  7  honorario          n 20130601  5.50          1
##  8       nulo          n 20161002  6.50          1
##  9       nulo          n 20161002  6.50          1
## 10       nulo          n 20161102  6.50          1
## # ... with 22,086 more rows

#### Formato para processamento estatstico -----------------
cat("Formato para processamento estatstico")

## Formato para processamento estatstico

cai <- read_excel('CAIv2.xlsx') %>% # readxl: importao
  group_by(componente,internacao,amq) %>% # dplyr: agrupamento
  summarise(valor = sum(valor), qt = sum(quantidade)) %>% # dplyr: sumarizao
  select(-valor) %>% # dplyr: retirada de uma coluna
  spread(componente,qt) %>% # tidyr: mudana de formato, de chave-valor para colunas
  arrange(amq, internacao) %>%  # dplyr: reordenao
  filter(amq>="20140101"); cai; # dplyr: seleo;

## # A tibble: 156 x 13
## # Groups:   internacao [2]
##    internacao      amq consulta domiciliar emergencia honorario material
##         <chr>    <chr>    <dbl>      <dbl>      <dbl>     <dbl>    <dbl>
##  1          n 20140101    37776         NA      21558     40467    33578
##  2          s 20140101       NA       3195         NA     17868   176369
##  3          n 20140102    51028         NA      22816     58106    48888
##  4          s 20140102       NA       2905         NA     19907   196991
##  5          n 20140201    42239         NA      20012     51574    34024
##  6          s 20140201       NA       3366         NA     19231   164092
##  7          n 20140202    35062         NA      18037     43491    31142
##  8          s 20140202       NA       2046         NA     16628   154004
##  9          n 20140301    29567         NA      20011     34624    23456
## 10          s 20140301       NA       3530         NA     17787   174785
## # ... with 146 more rows, and 6 more variables: medicamento <dbl>,
## #   nulo <dbl>, pacote <dbl>, remocao <dbl>, sadt <dbl>, taxa <dbl>
…
#### Retornando  configuro de plotagem com Grfico nico -
par(mfrow = c(1,1), oma = c(0, 0, 0, 0))

O sumrio do terceiro modelo tambm confirma a rejeio das hipteses nulas (coeficientes iguais a zero), pelos testes \(t\) e \(F\), e apresentando o mesma explicao de 94,55% da variao de SADT por consulta, pois o mesmo valor de rudo foi aplicado  segunda transformao a partir do clculo realizado no procedimento da primeira transformao (Orcutt).

Outros Experimentos

Retorno para Contedo

Outras tcnicas e visualizaes foram aplicadas dentro do estudo, e esto representadas a seguir, com respectivos comentrios:

#### Intervalos para os valores previstos, IC 95% -----------
as.tibble(predict.lm(lmT_hil.SCc, level=0.95, interval = 'confidence'))

## # A tibble: 77 x 3
##           fit         lwr       upr
##         <dbl>       <dbl>     <dbl>
##  1 288008.491 279419.7240 296597.26
##  2 100247.759  93240.2181 107255.30
##  3  90552.777  83226.6490  97878.91
##  4  86409.543  78939.6960  93879.39
##  5 334963.583 324307.3404 345619.82
##  6 163091.914 157311.6399 168872.19
##  7   9911.758   -759.6457  20583.16
##  8 263568.162 255927.4867 271208.84
##  9 160510.360 154715.3907 166305.33
## 10 139869.994 133836.4317 145903.56
## # ... with 67 more rows
…
