…
Processo de cálculo de dados padronizados por prestador

Planilha original importada e resultado final com dados padronizados, por prestador.

#x_fat_ate <- read_excel('Geral2014_17_prestadores_t.xls')
x_fat_ate <- read_excel('Geral2014_17_prestadores.xlsx')
as.tibble(x_fat_ate)

## # A tibble: 8,043 x 10
##    CODIGO PRESTADOR ANOMES QTA_FT     VA_FT VR_FT QTA_AT     VA_AT VR_AT
##     <dbl>     <chr>  <chr>  <dbl>     <dbl> <dbl>  <dbl>     <dbl> <dbl>
##  1 593684   LABOFAC 201401  12424  98841.12     0  17953 143866.40     0
##  2 593684   LABOFAC 201402  14267 104510.24     0  16407 131239.20     0
##  3 593684   LABOFAC 201403  16374 133809.28     0  15776 129994.24     0
##  4 593684   LABOFAC 201404  17683 158241.12     0  12212 105635.04     0
##  5 593684   LABOFAC 201405  12714 106098.24     0  15085 123673.76     0
##  6 593684   LABOFAC 201406  13954 114068.96     0  10689  88024.96     0
##  7 593684   LABOFAC 201407  13459 113507.84     0  15327 127122.72     0
##  8 593684   LABOFAC 201408  13773 128103.96     0  15703 155271.60     0
##  9 593684   LABOFAC 201409  13974 144367.60     0  14523 151433.00     0
## 10 593684   LABOFAC 201410  16694 174842.80     0  14456 151007.20     0
## # ... with 8,033 more rows, and 1 more variables: C_AFT <dbl>
…
idx <- unlist(FA.lst_scale)

FA.df_scale <- tibble(prestador = character(), anomes = character(), escala = double())

for (i in seq_along(unlist(FA.lst_scale))) {
  FA.df_scale[i,] <- c(str_sub(names(idx)[i], 1, str_locate(names(idx)[i], ".201")[1]-1),
                       str_sub(names(idx)[i], str_locate(names(idx)[i], ".201")[1]+1),
                       idx[i])
}

FA.df_scale %<>% mutate(escala = as.double(escala))

FA.df_scale

## # A tibble: 8,043 x 3
##    prestador anomes     escala
##        <chr>  <chr>      <dbl>
##  1    593684 201401 -1.3993333
##  2    593684 201402 -0.8307050
##  3    593684 201403  0.1185670
##  4    593684 201404  1.6349358
##  5    593684 201405 -0.5462267
##  6    593684 201406  0.8094172
##  7    593684 201407 -0.4231346
##  8    593684 201408 -0.8443386
##  9    593684 201409 -0.2195844
## 10    593684 201410  0.7407827
## # ... with 8,033 more rows

Cálculo de dados padronizados do Planserv

Planilha original importada e resultado final com dados padronizados, total do Planserv.

x_geral <- read_excel('Geral2014_17.xlsx')
as.tibble(x_geral)

## # A tibble: 42 x 8
##    ANOMES  QTA_FT     VA_FT   VR_FT  QTA_AT     VA_AT   VR_AT C_AFT
##     <chr>   <dbl>     <dbl>   <dbl>   <dbl>     <dbl>   <dbl> <dbl>
##  1 201401 4437378  90880926 4723227 4332533  92113128 4723227    25
##  2 201402 4010566  85710060 2598636 3997353  85781738 2598636    26
##  3 201403 4021788  84284854 3771789 4216303  89474343 3771789    22
##  4 201404 4121140  90236328 2300142 4345692  91392361 2300142    22
##  5 201405 4631651  98850458 1634174 4451116  98454488 1634174    21
##  6 201406 3970847  83830865 3300252 3963394  81887407 3300252    20
##  7 201407 4942944 103431716 2317810 4673853 102028979 2317810    21
##  8 201408 4772523 105130316 3310030 4860158 107910868 3310030    23
##  9 201409 4701533 105148274 2677199 4796902 108168537 2677199    20
## 10 201410 5010052 113589751 2486184 4987194 112586510 2486184    21
## # ... with 32 more rows
…
x_geral %<>% mutate(DIF = VA_FT-VA_AT)

FA.scale_geral <- cbind(anomes = x_geral$ANOMES, 
                        escala = scale(x_geral$DIF, 
                                 center = F, 
                                 scale = T)[1:dim(x_geral)[1],1])

FA.scale_geral %<>% 
  as.tibble() %>% 
  mutate(escala = as.double(escala))

FA.scale_geral

## # A tibble: 42 x 2
##    anomes       escala
##     <chr>        <dbl>
##  1 201401 -0.119997671
##  2 201402 -0.006980341
##  3 201403 -0.505376694
##  4 201404 -0.112579867
##  5 201405  0.038561388
##  6 201406  0.189263094
##  7 201407  0.136605093
##  8 201408 -0.270783179
##  9 201409 -0.294127444
## 10 201410  0.097700329
## # ... with 32 more rows
…
Junção dos dados das planilhas anteriores, código oculto abaixo.

x_fat_ate <- x_fat_ate %>%
  add_column(., escala = FA.df_scale[match(paste(.$CODIGO,
                                                 .$ANOMES),
                                           paste(FA.df_scale$prestador, 
                                                 FA.df_scale$anomes)), 3][[1]]) %>%
  add_column(., escala_geral = FA.scale_geral[match(.$ANOMES, 
                                                    FA.scale_geral$anomes), 2][[1]])

write.csv2(x_fat_ate, 'Prestador_FT_AT_Anomes.csv')

x_fat_ate

## # A tibble: 8,043 x 13
##    CODIGO PRESTADOR ANOMES QTA_FT     VA_FT VR_FT QTA_AT     VA_AT VR_AT
##     <dbl>     <chr>  <chr>  <dbl>     <dbl> <dbl>  <dbl>     <dbl> <dbl>
##  1 593684   LABOFAC 201401  12424  98841.12     0  17953 143866.40     0
##  2 593684   LABOFAC 201402  14267 104510.24     0  16407 131239.20     0
##  3 593684   LABOFAC 201403  16374 133809.28     0  15776 129994.24     0
##  4 593684   LABOFAC 201404  17683 158241.12     0  12212 105635.04     0
##  5 593684   LABOFAC 201405  12714 106098.24     0  15085 123673.76     0
##  6 593684   LABOFAC 201406  13954 114068.96     0  10689  88024.96     0
##  7 593684   LABOFAC 201407  13459 113507.84     0  15327 127122.72     0
##  8 593684   LABOFAC 201408  13773 128103.96     0  15703 155271.60     0
##  9 593684   LABOFAC 201409  13974 144367.60     0  14523 151433.00     0
## 10 593684   LABOFAC 201410  16694 174842.80     0  14456 151007.20     0
## # ... with 8,033 more rows, and 4 more variables: C_AFT <dbl>, DIF <dbl>,
## #   escala <dbl>, escala_geral <dbl>
…
write.csv2(FA.df_rank, 'Prestador_ranking.csv')

FA.df_rank

## # A tibble: 200 x 7
##    prestador faturado.r faturado dma.r       dma dma.c.r     dma.c
##        <chr>      <int>    <dbl> <int>     <dbl>   <int>     <dbl>
##  1    594122         37 20063898     4 1.2053047       1 0.8547002
##  2    594098         43 17758602     6 1.1423277       2 0.8503326
##  3    955054        162  3658678     5 1.1922746       3 0.8429671
##  4    593684        102  6851679     2 1.2245082       4 0.8396381
##  5    594577         18 48693147    17 1.0655626       5 0.8356626
##  6    594703        145  4213930    19 1.0617852       6 0.8240151
##  7    593908        165  3592508    21 1.0414852       7 0.8225829
##  8    744459         70 10280829    20 1.0446193       8 0.8223460
##  9    714381         91  7455943    39 0.9459727       9 0.8222380
## 10    809329        160  3718752    12 1.0907172      10 0.8194629
## # ... with 190 more rows
…
